simulation/qsim/contador.msim.vcd
$comment
	File created using the following command:
		vcd file contador.msim.vcd -direction
$end
$date
	Wed Mar 07 16:17:11 2018
$end
$version
	ModelSim Version 10.1d
$end
$timescale
	1ps
$end
$scope module contador_vlg_vec_tst $end
$var reg 1 ! clk $end
$var reg 4 " treg_Q [3:0] $end
$var reg 1 # rst $end
$var wire 1 $ Q [3] $end
$var wire 1 % Q [2] $end
$var wire 1 & Q [1] $end
$var wire 1 ' Q [0] $end
$var wire 1 ( sampler $end
$scope module i1 $end
$var wire 1 ) gnd $end
$var wire 1 * vcc $end
$var wire 1 + unknown $end
$var tri1 1 , devclrn $end
$var tri1 1 - devpor $end
$var tri1 1 . devoe $end
$var wire 1 / clk~combout $end
$var wire 1 0 clk~clkctrl_outclk $end
$var wire 1 1 rst~combout $end
$var wire 1 2 Q~8_combout $end
$var wire 1 3 Q[0]~reg0_regout $end
$var wire 1 4 Q~9_combout $end
$var wire 1 5 Q[1]~reg0_regout $end
$var wire 1 6 Q~10_combout $end
$var wire 1 7 Q[2]~reg0_regout $end
$var wire 1 8 Add0~0_combout $end
$var wire 1 9 Q~11_combout $end
$var wire 1 : Q[3]~reg0_regout $end
$upscope $end
$upscope $end
$enddefinitions $end
#0
$dumpvars
0!
bz "
0#
0'
0&
0%
0$
x(
0)
1*
x+
1,
1-
1.
0/
00
01
12
03
04
05
06
07
08
09
0:
$end
#10000
1!
1/
10
0(
13
14
02
1'
#20000
0!
0/
00
1(
#30000
1!
1/
10
0(
15
03
12
1&
0'
#40000
0!
0/
00
1(
#50000
1!
1/
10
0(
13
16
04
02
1'
#60000
0!
0/
00
1(
#70000
1!
1/
10
0(
17
05
03
12
1%
0&
0'
#80000
0!
0/
00
1(
#90000
1!
1/
10
0(
13
14
02
1'
#100000
0!
0/
00
1(
#110000
1!
1/
10
0(
15
03
12
1&
0'
#120000
0!
0/
00
1(
#130000
1!
1/
10
0(
13
18
06
04
02
1'
19
#140000
0!
0/
00
1(
#150000
1!
1/
10
0(
1:
07
05
03
12
1$
0%
0&
0'
#160000
0!
0/
00
1(
#170000
1!
1/
10
0(
13
14
02
1'
#180000
0!
0/
00
1(
#190000
1!
1/
10
0(
15
03
12
1&
0'
#200000
0!
0/
00
1(
#210000
1!
1/
10
0(
13
16
04
02
1'
#220000
0!
0/
00
1(
#230000
1!
1/
10
0(
17
05
03
12
1%
0&
0'
#240000
0!
0/
00
1(
#250000
1!
1/
10
0(
13
14
02
1'
#260000
0!
0/
00
1(
#270000
1!
1/
10
0(
15
03
12
1&
0'
#280000
0!
0/
00
1(
#290000
1!
1/
10
0(
13
08
06
04
02
1'
09
#300000
0!
0/
00
1(
#310000
1!
1/
10
0(
0:
07
05
03
12
0$
0%
0&
0'
#320000
0!
0/
00
1(
#330000
1!
1/
10
0(
13
14
02
1'
#340000
0!
0/
00
1(
#350000
1!
1/
10
0(
15
03
12
1&
0'
#360000
0!
0/
00
1(
#370000
1!
1/
10
0(
13
16
04
02
1'
#380000
0!
0/
00
1(
#390000
1!
1/
10
0(
17
05
03
12
1%
0&
0'
#400000
0!
0/
00
1(
#410000
1!
1/
10
0(
13
14
02
1'
#420000
0!
0/
00
1(
#430000
1!
1/
10
0(
15
03
12
1&
0'
#440000
0!
0/
00
1(
#450000
1!
1/
10
0(
13
18
06
04
02
1'
19
#460000
0!
0/
00
1(
#470000
1!
1/
10
0(
1:
07
05
03
12
1$
0%
0&
0'
#480000
0!
0/
00
1(
#490000
1!
1/
10
0(
13
14
02
1'
#500000
0!
0/
00
1(
#510000
1!
1/
10
0(
15
03
12
1&
0'
#520000
0!
0/
00
1(
#530000
1!
1/
10
0(
13
16
04
02
1'
#540000
0!
0/
00
1(
#550000
1!
1/
10
0(
17
05
03
12
1%
0&
0'
#560000
0!
0/
00
1(
#570000
1!
1/
10
0(
13
14
02
1'
#580000
0!
0/
00
1(
#590000
1!
1/
10
0(
15
03
12
1&
0'
#600000
0!
0/
00
1(
#610000
1!
1/
10
0(
13
08
06
04
02
1'
09
#620000
0!
0/
00
1(
#630000
1!
1/
10
0(
0:
07
05
03
12
0$
0%
0&
0'
#640000
0!
0/
00
1(
#650000
1!
1/
10
0(
13
14
02
1'
#660000
0!
0/
00
1(
#670000
1!
1/
10
0(
15
03
12
1&
0'
#680000
0!
0/
00
1(
#690000
1!
1/
10
0(
13
16
04
02
1'
#700000
0!
0/
00
1(
#710000
1!
1/
10
0(
17
05
03
12
1%
0&
0'
#720000
0!
0/
00
1(
#730000
1!
1/
10
0(
13
14
02
1'
#740000
1#
0!
11
0/
00
1(
06
04
#750000
1!
1/
10
0(
07
03
0%
0'
#760000
0#
0!
01
0/
00
1(
12
#770000
1!
1/
10
0(
13
14
02
1'
#780000
0!
0/
00
1(
#790000
1!
1/
10
0(
15
03
12
1&
0'
#800000
0!
0/
00
1(
#810000
1!
1/
10
0(
13
16
04
02
1'
#820000
0!
0/
00
1(
#830000
1!
1/
10
0(
17
05
03
12
1%
0&
0'
#840000
0!
0/
00
1(
#850000
1!
1/
10
0(
13
14
02
1'
#860000
0!
0/
00
1(
#870000
1!
1/
10
0(
15
03
12
1&
0'
#880000
0!
0/
00
1(
#890000
1!
1/
10
0(
13
18
06
04
02
1'
19
#900000
0!
0/
00
1(
#910000
1!
1/
10
0(
1:
07
05
03
12
1$
0%
0&
0'
#920000
0!
0/
00
1(
#930000
1!
1/
10
0(
13
14
02
1'
#940000
0!
0/
00
1(
#950000
1!
1/
10
0(
15
03
12
1&
0'
#960000
0!
0/
00
1(
#970000
1!
1/
10
0(
13
16
04
02
1'
#980000
0!
0/
00
1(
#990000
1!
1/
10
0(
17
05
03
12
1%
0&
0'
